Measuring Corruption Risk in Emergency • coresoi
…
## basic example code with ind_1() i.e. High Winning Rate
ind_1_res <- ind_1(
  data = mock_data_core, 
  publication_date = data_pubblicazione, 
  stat_unit = cf_amministrazione_appaltante,
  emergency_name = "coronavirus",
  test_type = "fisher")
ind_1_res
#> # A tibble: 624 × 12
#> # Rowwise: 
#>    indicator_id indica…¹ indic…² aggre…³ aggre…⁴ aggre…⁵ emerg…⁶ emerg…⁷ count…⁸
#>           <dbl> <chr>      <dbl> <chr>   <chr>   <chr>     <int> <chr>   <chr>  
#>  1            1 Winning…       1 000585… ISTAT1  cf_amm…       1 Corona… 1      
#>  2            1 Winning…       1 000647… ISTAT1  cf_amm…       1 Corona… 1      
#>  3            1 Winning…       1 000675… ISTAT1  cf_amm…       1 Corona… 1      
#>  4            1 Winning…       1 000759… ISTAT1  cf_amm…       1 Corona… 1      
#>  5            1 Winning…       1 000802… ISTAT1  cf_amm…       1 Corona… 1      
#>  6            1 Winning…       1 000808… ISTAT1  cf_amm…       1 Corona… 1      
#>  7            1 Winning…       1 000982… ISTAT1  cf_amm…       1 Corona… 1      
#>  8            1 Winning…       1 001043… ISTAT1  cf_amm…       1 Corona… 1      
#>  9            1 Winning…       1 001086… ISTAT1  cf_amm…       1 Corona… 1      
#> 10            1 Winning…       1 001107… ISTAT1  cf_amm…       1 Corona… 1      
#> # … with 614 more rows, 3 more variables: country_name <chr>,
#> #   indicator_last_update <dttm>, data_last_update <dttm>, and abbreviated
#> #   variable names ¹​indicator_name, ²​indicator_value, ³​aggregation_name,
#> #   ⁴​aggregation_id, ⁵​aggregation_type, ⁶​emergency_id, ⁷​emergency_name,
#> #   ⁸​country_id
…
